{
  "username": "root",
  "password": "",
  "database": "diamonds",
  "host": "127.0.0.1",
  "dialect": "mysql",
  "define": {
    "charset": "utf8mb4",
    "dialectOptions": {
      "collate": "utf8mb4_unicode_ci"
    },
    "underscored": true
  }
}